%YAML 1.1
%TAG !u! tag:unity3d.com,2011:
--- !u!1 &4420398508505224961
GameObject:
  m_ObjectHideFlags: 0
  m_CorrespondingSourceObject: {fileID: 0}
  m_PrefabInstance: {fileID: 0}
  m_PrefabAsset: {fileID: 0}
  serializedVersion: 6
  m_Component:
  - component: {fileID: 4420398508505224963}
  - component: {fileID: 4420398508505224960}
  m_Layer: 0
  m_Name: InitSingletons
  m_TagString: Untagged
  m_Icon: {fileID: 0}
  m_NavMeshLayer: 0
  m_StaticEditorFlags: 0
  m_IsActive: 1
--- !u!4 &4420398508505224963
Transform:
  m_ObjectHideFlags: 0
  m_CorrespondingSourceObject: {fileID: 0}
  m_PrefabInstance: {fileID: 0}
  m_PrefabAsset: {fileID: 0}
  m_GameObject: {fileID: 4420398508505224961}
  m_LocalRotation: {x: 0, y: 0, z: 0, w: 1}
  m_LocalPosition: {x: 446.60312, y: 241.09253, z: -137.66302}
  m_LocalScale: {x: 1, y: 1, z: 1}
  m_ConstrainProportionsScale: 0
  m_Children: []
  m_Father: {fileID: 0}
  m_RootOrder: 0
  m_LocalEulerAnglesHint: {x: 0, y: 0, z: 0}
--- !u!114 &4420398508505224960
MonoBehaviour:
  m_ObjectHideFlags: 0
  m_CorrespondingSourceObject: {fileID: 0}
  m_PrefabInstance: {fileID: 0}
  m_PrefabAsset: {fileID: 0}
  m_GameObject: {fileID: 4420398508505224961}
  m_Enabled: 1
  m_EditorHideFlags: 0
  m_Script: {fileID: 11500000, guid: 4f7ed081caa4d3840a784e74d34986a8, type: 3}
  m_Name: 
  m_EditorClassIdentifier: 
  rewiredPrefab: {fileID: 595824197698472552, guid: 50ee8ac4548de0a4496c0f09bf0bbfc5, type: 3}
  fpsPrefab: {fileID: 4504131242576340891, guid: f22efd9777f9a9c468ff16c95b3f1b99, type: 3}
  enableFPS: 1
